{
    "templateLinkedView": null,
    "templateName"      : "Battery Status Report",
    "sensorProperties"  : ["lastValue"],
    "siblingObjTypes"   : [],
    "columnTemplates"   : [
        {
            "propertyRelationType": "This",
            "title"               : "columnname/battery_status",
            "maxColumnCount"      : 10,
            "displayMode"         : "SimpleStatusIcon",
            "columnWidth"         : 90,
            "propClass"           : "classjava.lang.Integer",
            "propertyName"        : "batteryStatus",
            "propertyObjectType"  : "WSNNODE"
        },
        {
            "propertyRelationType": "This",
            "title"               : "columnname/node_name",
            "maxColumnCount"      : 10,
            "displayMode"         : "Simple",
            "columnWidth"         : 112,
            "propClass"           : "classjava.lang.String",
            "propertyName"        : "name",
            "propertyObjectType"  : "WSNNODE"
        },
        {
            "propertyRelationType": "This",
            "title"               : "object_property_wsnnode_location",
            "maxColumnCount"      : 10,
            "displayMode"         : "Simple",
            "columnWidth"         : 93,
            "propClass"           : "classjava.lang.String",
            "propertyName"        : "location",
            "propertyObjectType"  : "WSNNODE"
        },
        {
            "propertyRelationType": "Parent",
            "title"               : "columnname/room",
            "maxColumnCount"      : 10,
            "displayMode"         : "Simple",
            "columnWidth"         : 125,
            "propClass"           : "classjava.lang.String",
            "propertyName"        : "name",
            "propertyObjectType"  : "ROOM"
        }
    ],
    "objType"           : "WSNNODE",
    "templateMenuItems" : [
        {"menuItemAlias": "Enable"},
        {"menuItemAlias": "Disable"},
        {"menuItemAlias": "DefineAlert"},
        {"menuItemAlias": "GoToDataAnalysis"},
        {"menuItemAlias": "SendData"},
        {"menuItemAlias": "Identify"},
        {"menuItemAlias": "Reset"},
        {"menuItemAlias": "ChangeCapacity"},
        {"menuItemAlias": "ShowNodeOnFloorplan"}
    ]
}