{
    "sensorProperties"  : ["lastValue"],
    "templateName"      : "CRAH/CRAC",
    "templateMenuItems" : [
        {"menuItemAlias": "Enable"},
        {"menuItemAlias": "Disable"},
        {"menuItemAlias": "DefineAlert"},
        {"menuItemAlias": "GoToDataAnalysis"},
        {"menuItemAlias": "ShowOnFloorplan"}
    ],
    "siblingObjTypes"   : [],
    "templateLinkedView": {"viewLinkAlias": "ObjectDetails"},
    "columnTemplates"   : [
        {
            "propClass"           : "class java.lang.Integer",
            "displayMode"         : "StatusIcon",
            "maxColumnCount"      : 10,
            "title"               : "object_property_crac_status",
            "propertyName"        : "status",
            "propertyObjectType"  : "CRAC",
            "propertyRelationType": "This",
            "columnWidth"         : 80
        },
        {
            "propClass"           : "class java.lang.String",
            "displayMode"         : "Simple",
            "maxColumnCount"      : 10,
            "title"               : "object_property_crac_name",
            "propertyName"        : "name",
            "propertyObjectType"  : "CRAC",
            "propertyRelationType": "This",
            "columnWidth"         : 80
        },
        {
            "propClass"           : "class java.lang.Double",
            "displayMode"         : "Reading",
            "maxColumnCount"      : 10,
            "title"               : "object_property_crac_coolingefficiency",
            "propertyName"        : "coolingEfficiency",
            "propertyObjectType"  : "CRAC",
            "propertyRelationType": "This",
            "columnWidth"         : 121
        },
        {
            "propClass"           : "interface com.synapsense.dto.TO",
            "displayMode"         : "Reading",
            "maxColumnCount"      : 10,
            "title"               : "object_property_crac_supplyt",
            "propertyName"        : "supplyT",
            "propertyObjectType"  : "CRAC",
            "propertyRelationType": "This",
            "columnWidth"         : 128
        },
        {
            "propClass"           : "interface com.synapsense.dto.TO",
            "displayMode"         : "Reading",
            "maxColumnCount"      : 10,
            "title"               : "object_property_crac_returnt",
            "propertyName"        : "returnT",
            "propertyObjectType"  : "CRAC",
            "propertyRelationType": "This",
            "columnWidth"         : 125
        },
        {
            "propClass"           : "class java.lang.Double",
            "displayMode"         : "Reading",
            "maxColumnCount"      : 10,
            "title"               : "object_property_crac_cracdeltat",
            "propertyName"        : "cracDeltaT",
            "propertyObjectType"  : "CRAC",
            "propertyRelationType": "This",
            "columnWidth"         : 57
        },
        {
            "propClass"           : "class java.lang.Double",
            "displayMode"         : "Reading",
            "maxColumnCount"      : 10,
            "title"               : "object_property_crac_supplydp",
            "propertyName"        : "supplyDp",
            "propertyObjectType"  : "CRAC",
            "propertyRelationType": "This",
            "columnWidth"         : 108
        },
        {
            "propClass"           : "class java.lang.Double",
            "displayMode"         : "Reading",
            "maxColumnCount"      : 10,
            "title"               : "object_property_crac_returndp",
            "propertyName"        : "returnDp",
            "propertyObjectType"  : "CRAC",
            "propertyRelationType": "This",
            "columnWidth"         : 109
        },
        {
            "propClass"           : "interface com.synapsense.dto.TO",
            "displayMode"         : "Reading",
            "maxColumnCount"      : 10,
            "title"               : "columnname/supply_rh",
            "propertyName"        : "supplyRh",
            "propertyObjectType"  : "CRAC",
            "propertyRelationType": "This",
            "columnWidth"         : 71
        },
        {
            "propClass"           : "interface com.synapsense.dto.TO",
            "displayMode"         : "Reading",
            "maxColumnCount"      : 10,
            "title"               : "columnname/return_rh",
            "propertyName"        : "returnRh",
            "propertyObjectType"  : "CRAC",
            "propertyRelationType": "This",
            "columnWidth"         : 70
        },
        {
            "propClass"           : "class java.lang.Double",
            "displayMode"         : "Reading",
            "maxColumnCount"      : 10,
            "title"               : "columnname/alr",
            "propertyName"        : "alr",
            "propertyObjectType"  : "CRAC",
            "propertyRelationType": "This",
            "columnWidth"         : 48
        }
    ],
    "objType"           : "CRAC"
}