{
    "sensorProperties"  : ["lastValue"],
    "templateName"      : "Pressure",
    "templateMenuItems" : [
        {"menuItemAlias": "Enable"},
        {"menuItemAlias": "Disable"},
        {"menuItemAlias": "DefineAlert"},
        {"menuItemAlias": "GoToDataAnalysis"},
        {"menuItemAlias": "ShowOnFloorplan"}
    ],
    "siblingObjTypes"   : [],
    "templateLinkedView": {"viewLinkAlias": "ObjectDetails"},
    "columnTemplates"   : [
        {
            "propClass"           : "class java.lang.Integer",
            "displayMode"         : "StatusIcon",
            "maxColumnCount"      : 10,
            "title"               : "object_property_pressure_status",
            "propertyName"        : "status",
            "propertyObjectType"  : "PRESSURE",
            "propertyRelationType": "This",
            "columnWidth"         : 80
        },
        {
            "propClass"           : "class java.lang.String",
            "displayMode"         : "Simple",
            "maxColumnCount"      : 10,
            "title"               : "object_property_pressure_name",
            "propertyName"        : "name",
            "propertyObjectType"  : "PRESSURE",
            "propertyRelationType": "This",
            "columnWidth"         : 97
        },
        {
            "propClass"           : "class java.lang.String",
            "displayMode"         : "Simple",
            "maxColumnCount"      : 10,
            "title"               : "object_property_pressure_location",
            "propertyName"        : "location",
            "propertyObjectType"  : "PRESSURE",
            "propertyRelationType": "This",
            "columnWidth"         : 110
        },
        {
            "propClass"           : "interface com.synapsense.dto.TO",
            "displayMode"         : "Reading",
            "maxColumnCount"      : 10,
            "title"               : "object_property_pressure_pressure",
            "propertyName"        : "pressure",
            "propertyObjectType"  : "PRESSURE",
            "propertyRelationType": "This",
            "columnWidth"         : 80
        },
        {
            "propClass"           : "interface com.synapsense.dto.TO",
            "displayMode"         : "Timestamp",
            "maxColumnCount"      : 10,
            "title"               : "columnname/timestamp",
            "propertyName"        : "pressure",
            "propertyObjectType"  : "PRESSURE",
            "propertyRelationType": "This",
            "columnWidth"         : 131
        }
    ],
    "objType"           : "PRESSURE"
}